[
  {
    "uuid": "5c655c01c5a5a3b20a56b324",
    "created_at": "2019-01-26T11:19:16 +02:00",
    "name": "Greta Scott",
    "gender": "female",
    "status": 2,
    "email": "gretascott@klugger.com",
    "address": "303 Bassett Avenue, Loyalhanna, Colorado, 5063",
    "latitude": -63.23843,
    "longitude": -70.965762,
    "products": [
      {
        "id": 0,
        "name": "Bell Cote",
        "value": 44.2243
      },
      {
        "id": 1,
        "name": "Myra Nguyen",
        "value": 39.9191
      },
      {
        "id": 2,
        "name": "Oconnor Oneal",
        "value": 22.5562
      }
    ]
  },
  {
    "uuid": "5c655c0131603aa058e8a81b",
    "created_at": "2019-01-15T03:21:35 +02:00",
    "name": "Edna Macdonald",
    "gender": "female",
    "status": 3,
    "email": "ednamacdonald@klugger.com",
    "address": "521 Decatur Street, Sunnyside, Hawaii, 8264",
    "latitude": 52.120631,
    "longitude": -117.229564,
    "products": [
      {
        "id": 0,
        "name": "Tamra Byers",
        "value": 71.636
      },
      {
        "id": 1,
        "name": "Clark Hendrix",
        "value": 25.0313
      },
      {
        "id": 2,
        "name": "Jenna Barron",
        "value": 84.964
      }
    ]
  },
  {
    "uuid": "5c655c0199c369d99adc9023",
    "created_at": "2019-02-09T06:37:44 +02:00",
    "name": "Farley Luna",
    "gender": "male",
    "status": 1,
    "email": "farleyluna@klugger.com",
    "address": "204 Wolcott Street, Jessie, California, 9067",
    "latitude": 32.867882,
    "longitude": 63.704348,
    "products": [
      {
        "id": 0,
        "name": "Crane Erickson",
        "value": 20.5051
      },
      {
        "id": 1,
        "name": "Ivy Perez",
        "value": 12.145
      },
      {
        "id": 2,
        "name": "Hopkins Levine",
        "value": 23.1524
      }
    ]
  },
  {
    "uuid": "5c655c01cf2fd91617219d5a",
    "created_at": "2019-02-04T04:56:55 +02:00",
    "name": "Ware Jimenez",
    "gender": "male",
    "status": 1,
    "email": "warejimenez@klugger.com",
    "address": "290 Utica Avenue, Geyserville, Rhode Island, 7283",
    "latitude": -29.948627,
    "longitude": -154.838521,
    "products": [
      {
        "id": 0,
        "name": "Deena Garza",
        "value": 84.1365
      },
      {
        "id": 1,
        "name": "Keller Kirby",
        "value": 51.1414
      },
      {
        "id": 2,
        "name": "Caroline Mitchell",
        "value": 26.2173
      }
    ]
  },
  {
    "uuid": "5c655c01bf8d15bf11b9069c",
    "created_at": "2019-01-29T02:20:22 +02:00",
    "name": "Tisha Austin",
    "gender": "female",
    "status": 1,
    "email": "tishaaustin@klugger.com",
    "address": "952 Ferris Street, Silkworth, Idaho, 7303",
    "latitude": -63.741101,
    "longitude": 129.790561,
    "products": [
      {
        "id": 0,
        "name": "Patti Crane",
        "value": 60.6432
      },
      {
        "id": 1,
        "name": "Teri Dudley",
        "value": 54.7136
      },
      {
        "id": 2,
        "name": "Leticia Hughes",
        "value": 14.6517
      }
    ]
  },
  {
    "uuid": "5c655c014888bea78f015cd1",
    "created_at": "2019-01-25T08:32:18 +02:00",
    "name": "Jan Cline",
    "gender": "female",
    "status": 1,
    "email": "jancline@klugger.com",
    "address": "145 Kermit Place, Maybell, New York, 9932",
    "latitude": -66.436777,
    "longitude": -38.935216,
    "products": [
      {
        "id": 0,
        "name": "Penny Juarez",
        "value": 28.4396
      },
      {
        "id": 1,
        "name": "Mooney Michael",
        "value": 29.4764
      },
      {
        "id": 2,
        "name": "Lancaster Clay",
        "value": 62.2533
      }
    ]
  },
  {
    "uuid": "5c655c0109b3ab994bc7f58a",
    "created_at": "2019-02-02T12:18:08 +02:00",
    "name": "Kirkland Mueller",
    "gender": "male",
    "status": 1,
    "email": "kirklandmueller@klugger.com",
    "address": "370 Nostrand Avenue, Elizaville, Montana, 2875",
    "latitude": -75.452233,
    "longitude": -155.043173,
    "products": [
      {
        "id": 0,
        "name": "Cummings Sweeney",
        "value": 70.6279
      },
      {
        "id": 1,
        "name": "Marisol Mejia",
        "value": 81.7293
      },
      {
        "id": 2,
        "name": "Fisher Keith",
        "value": 58.2322
      }
    ]
  },
  {
    "uuid": "5c655c0188d586a72d10f04b",
    "created_at": "2019-01-13T02:04:40 +02:00",
    "name": "Mckee Nixon",
    "gender": "male",
    "status": 3,
    "email": "mckeenixon@klugger.com",
    "address": "372 Belmont Avenue, Newry, Tennessee, 5923",
    "latitude": 82.645516,
    "longitude": -11.925914,
    "products": [
      {
        "id": 0,
        "name": "Nieves Albert",
        "value": 68.6247
      },
      {
        "id": 1,
        "name": "Barrera Russo",
        "value": 89.0876
      },
      {
        "id": 2,
        "name": "Simon Romero",
        "value": 85.3404
      }
    ]
  },
  {
    "uuid": "5c655c013b75ebd6b0cbf198",
    "created_at": "2019-02-12T08:07:11 +02:00",
    "name": "Alberta Randolph",
    "gender": "female",
    "status": 2,
    "email": "albertarandolph@klugger.com",
    "address": "984 Albemarle Road, Bascom, Nevada, 8827",
    "latitude": 47.828998,
    "longitude": -18.107386,
    "products": [
      {
        "id": 0,
        "name": "Houston Davidson",
        "value": 57.0734
      },
      {
        "id": 1,
        "name": "Alba Jefferson",
        "value": 71.9989
      },
      {
        "id": 2,
        "name": "Campbell Wagner",
        "value": 49.6593
      }
    ]
  },
  {
    "uuid": "5c655c0108a3e91a19106fbe",
    "created_at": "2019-01-14T06:33:41 +02:00",
    "name": "Angela Gay",
    "gender": "female",
    "status": 3,
    "email": "angelagay@klugger.com",
    "address": "911 Caton Avenue, Balm, Maryland, 5674",
    "latitude": 85.191777,
    "longitude": -56.618934,
    "products": [
      {
        "id": 0,
        "name": "Cooley Hawkins",
        "value": 69.4686
      },
      {
        "id": 1,
        "name": "Amie Sims",
        "value": 70.5735
      },
      {
        "id": 2,
        "name": "Jayne Pennington",
        "value": 38.857
      }
    ]
  },
  {
    "uuid": "5c655c011993e01d50ac92c1",
    "created_at": "2019-01-03T06:55:59 +02:00",
    "name": "Morales Gibbs",
    "gender": "male",
    "status": 3,
    "email": "moralesgibbs@klugger.com",
    "address": "168 Strauss Street, Gibbsville, Oklahoma, 6889",
    "latitude": -69.987018,
    "longitude": 103.995573,
    "products": [
      {
        "id": 0,
        "name": "Ginger Gould",
        "value": 17.4512
      },
      {
        "id": 1,
        "name": "Ursula Jones",
        "value": 25.8153
      },
      {
        "id": 2,
        "name": "Hess Keller",
        "value": 13.855
      }
    ]
  },
  {
    "uuid": "5c655c01b95ee72759d12497",
    "created_at": "2019-01-15T12:15:13 +02:00",
    "name": "Shepherd Humphrey",
    "gender": "male",
    "status": 3,
    "email": "shepherdhumphrey@klugger.com",
    "address": "458 Forest Place, Vincent, American Samoa, 6887",
    "latitude": -31.198113,
    "longitude": -37.854828,
    "products": [
      {
        "id": 0,
        "name": "Lynnette Fisher",
        "value": 19.9731
      },
      {
        "id": 1,
        "name": "Regina Acosta",
        "value": 61.7414
      },
      {
        "id": 2,
        "name": "Abigail Evans",
        "value": 78.6188
      }
    ]
  },
  {
    "uuid": "5c655c014c71214a49ded27c",
    "created_at": "2019-02-11T05:09:49 +02:00",
    "name": "Benson Valenzuela",
    "gender": "male",
    "status": 2,
    "email": "bensonvalenzuela@klugger.com",
    "address": "701 Lincoln Place, Weeksville, New Jersey, 6674",
    "latitude": -0.103609,
    "longitude": -151.238405,
    "products": [
      {
        "id": 0,
        "name": "Cannon Trevino",
        "value": 16.9118
      },
      {
        "id": 1,
        "name": "Poole Duke",
        "value": 62.917
      },
      {
        "id": 2,
        "name": "Valeria Farrell",
        "value": 44.0073
      }
    ]
  },
  {
    "uuid": "5c655c01e699529b8937d98a",
    "created_at": "2019-01-22T11:48:12 +02:00",
    "name": "Rush Thornton",
    "gender": "male",
    "status": 3,
    "email": "rushthornton@klugger.com",
    "address": "787 Cornelia Street, Robinson, Puerto Rico, 116",
    "latitude": -47.389377,
    "longitude": -140.791249,
    "products": [
      {
        "id": 0,
        "name": "Benjamin Trujillo",
        "value": 29.1214
      },
      {
        "id": 1,
        "name": "Mildred Ruiz",
        "value": 35.3208
      },
      {
        "id": 2,
        "name": "Casey Conway",
        "value": 76.7241
      }
    ]
  },
  {
    "uuid": "5c655c01fab01adc479f18bc",
    "created_at": "2019-02-03T08:43:26 +02:00",
    "name": "Miriam Bowers",
    "gender": "female",
    "status": 2,
    "email": "miriambowers@klugger.com",
    "address": "488 Harwood Place, Coinjock, Louisiana, 3563",
    "latitude": -52.090367,
    "longitude": 32.021068,
    "products": [
      {
        "id": 0,
        "name": "Cherry Heath",
        "value": 71.1754
      },
      {
        "id": 1,
        "name": "Massey Kent",
        "value": 66.5037
      },
      {
        "id": 2,
        "name": "Maldonado Alford",
        "value": 50.8691
      }
    ]
  }
]